1510304927865994 0 1 7599 [[cmdline=./../src/treetrace\0-t\0./fork.tree\0-l\0./fork.trace\0--\0./fork.bin][comm=treetrace][environ=...][exe=/tmp/xian/src/treetrace]]
1510304927866582 2 2 1 [[cmdline=./fork.bin][comm=fork.bin][environ=...][exe=/tmp/xian/tests/fork.bin]]
1510304927866835 4 2 [[canceled_write_bytes=0][cwd=/tmp/xian/tests][rchar=1116][read_bytes=0][stime=0][syscr=5][syscw=0][utime=0][wchar=0][write_bytes=0]]
1510304927867166 1 3 2 7602 p
1510304927867585 4 3 [[canceled_write_bytes=0][cwd=/tmp/xian/tests][rchar=0][read_bytes=0][stime=0][syscr=0][syscw=0][utime=0][wchar=0][write_bytes=0]]
1510304927868260 4 3 [[canceled_write_bytes=0][cwd=/tmp/xian/tests][rchar=0][read_bytes=0][stime=0][syscr=0][syscw=0][utime=0][wchar=0][write_bytes=0]]
1510304927868372 3 3 c 0
1510304927868504 4 2 [[canceled_write_bytes=0][cwd=/tmp/xian/tests][rchar=1948][read_bytes=0][stime=0][syscr=6][syscw=0][utime=0][wchar=0][write_bytes=0]]
1510304927868697 3 2 c 0
